%YAML 1.1
%TAG !u! tag:unity3d.com,2011:
--- !u!1001 &7400987824889289497
PrefabInstance:
  m_ObjectHideFlags: 0
  serializedVersion: 2
  m_Modification:
    m_TransformParent: {fileID: 0}
    m_Modifications:
    - target: {fileID: 708989740, guid: 1356ac7cafe1bcf44b7bd4f156e43599, type: 3}
      propertyPath: InitialModule.startColor.maxColor.r
      value: 0
      objectReference: {fileID: 0}
    - target: {fileID: 708989740, guid: 1356ac7cafe1bcf44b7bd4f156e43599, type: 3}
      propertyPath: InitialModule.startColor.maxColor.g
      value: 0.45662165
      objectReference: {fileID: 0}
    - target: {fileID: 3491262188079450306, guid: 1356ac7cafe1bcf44b7bd4f156e43599,
        type: 3}
      propertyPath: m_Materials.Array.data[0]
      value: 
      objectReference: {fileID: 2100000, guid: 0962c8b36f076ca4fa0fe1e80bab91a1, type: 2}
    - target: {fileID: 5592613574878133701, guid: 1356ac7cafe1bcf44b7bd4f156e43599,
        type: 3}
      propertyPath: m_Name
      value: PushButtonBlue
      objectReference: {fileID: 0}
    - target: {fileID: 8919288570120081366, guid: 1356ac7cafe1bcf44b7bd4f156e43599,
        type: 3}
      propertyPath: m_LocalPosition.x
      value: 4
      objectReference: {fileID: 0}
    - target: {fileID: 8919288570120081366, guid: 1356ac7cafe1bcf44b7bd4f156e43599,
        type: 3}
      propertyPath: m_LocalPosition.y
      value: 0.03
      objectReference: {fileID: 0}
    - target: {fileID: 8919288570120081366, guid: 1356ac7cafe1bcf44b7bd4f156e43599,
        type: 3}
      propertyPath: m_LocalPosition.z
      value: 1
      objectReference: {fileID: 0}
    - target: {fileID: 8919288570120081366, guid: 1356ac7cafe1bcf44b7bd4f156e43599,
        type: 3}
      propertyPath: m_LocalRotation.x
      value: -0
      objectReference: {fileID: 0}
    - target: {fileID: 8919288570120081366, guid: 1356ac7cafe1bcf44b7bd4f156e43599,
        type: 3}
      propertyPath: m_LocalRotation.y
      value: -0
      objectReference: {fileID: 0}
    - target: {fileID: 8919288570120081366, guid: 1356ac7cafe1bcf44b7bd4f156e43599,
        type: 3}
      propertyPath: m_LocalRotation.z
      value: -0
      objectReference: {fileID: 0}
    - target: {fileID: 8919288570120081366, guid: 1356ac7cafe1bcf44b7bd4f156e43599,
        type: 3}
      propertyPath: m_LocalRotation.w
      value: 1
      objectReference: {fileID: 0}
    - target: {fileID: 8919288570120081366, guid: 1356ac7cafe1bcf44b7bd4f156e43599,
        type: 3}
      propertyPath: m_RootOrder
      value: 0
      objectReference: {fileID: 0}
    - target: {fileID: 8919288570120081366, guid: 1356ac7cafe1bcf44b7bd4f156e43599,
        type: 3}
      propertyPath: m_LocalEulerAnglesHint.x
      value: 0
      objectReference: {fileID: 0}
    - target: {fileID: 8919288570120081366, guid: 1356ac7cafe1bcf44b7bd4f156e43599,
        type: 3}
      propertyPath: m_LocalEulerAnglesHint.y
      value: 0
      objectReference: {fileID: 0}
    - target: {fileID: 8919288570120081366, guid: 1356ac7cafe1bcf44b7bd4f156e43599,
        type: 3}
      propertyPath: m_LocalEulerAnglesHint.z
      value: 0
      objectReference: {fileID: 0}
    m_RemovedComponents: []
  m_SourcePrefab: {fileID: 100100000, guid: 1356ac7cafe1bcf44b7bd4f156e43599, type: 3}
