%YAML 1.1
%TAG !u! tag:unity3d.com,2011:
--- !u!1 &1255067369481505863
GameObject:
  m_ObjectHideFlags: 0
  m_CorrespondingSourceObject: {fileID: 0}
  m_PrefabInstance: {fileID: 0}
  m_PrefabAsset: {fileID: 0}
  serializedVersion: 6
  m_Component:
  - component: {fileID: 1255067369481505857}
  m_Layer: 8
  m_Name: CuboRed
  m_TagString: Untagged
  m_Icon: {fileID: 0}
  m_NavMeshLayer: 0
  m_StaticEditorFlags: 0
  m_IsActive: 1
--- !u!4 &1255067369481505857
Transform:
  m_ObjectHideFlags: 0
  m_CorrespondingSourceObject: {fileID: 0}
  m_PrefabInstance: {fileID: 0}
  m_PrefabAsset: {fileID: 0}
  m_GameObject: {fileID: 1255067369481505863}
  m_LocalRotation: {x: 0, y: 0, z: 0, w: 1}
  m_LocalPosition: {x: -1, y: 0, z: 0}
  m_LocalScale: {x: 1, y: 1, z: 1}
  m_Children:
  - {fileID: 1538398727029271652}
  m_Father: {fileID: 0}
  m_RootOrder: 0
  m_LocalEulerAnglesHint: {x: 0, y: 0, z: 0}
--- !u!65 &8707577910550843598
BoxCollider:
  m_ObjectHideFlags: 0
  m_CorrespondingSourceObject: {fileID: 0}
  m_PrefabInstance: {fileID: 0}
  m_PrefabAsset: {fileID: 0}
  m_GameObject: {fileID: 2522619032921235063}
  m_Material: {fileID: 0}
  m_IsTrigger: 0
  m_Enabled: 1
  serializedVersion: 2
  m_Size: {x: 0.041666664, y: 0.041666664, z: 0.041666668}
  m_Center: {x: -9.313226e-10, y: -9.313226e-10, z: 0}
--- !u!1001 &5774680919179233150
PrefabInstance:
  m_ObjectHideFlags: 0
  serializedVersion: 2
  m_Modification:
    m_TransformParent: {fileID: 1255067369481505857}
    m_Modifications:
    - target: {fileID: -4216859302048453862, guid: f8979654187ed3c4f8a0a4165cee37b7,
        type: 3}
      propertyPath: m_LocalPosition.x
      value: 0
      objectReference: {fileID: 0}
    - target: {fileID: -4216859302048453862, guid: f8979654187ed3c4f8a0a4165cee37b7,
        type: 3}
      propertyPath: m_LocalPosition.y
      value: 0.5
      objectReference: {fileID: 0}
    - target: {fileID: -4216859302048453862, guid: f8979654187ed3c4f8a0a4165cee37b7,
        type: 3}
      propertyPath: m_LocalPosition.z
      value: 0
      objectReference: {fileID: 0}
    - target: {fileID: -4216859302048453862, guid: f8979654187ed3c4f8a0a4165cee37b7,
        type: 3}
      propertyPath: m_LocalRotation.x
      value: -0
      objectReference: {fileID: 0}
    - target: {fileID: -4216859302048453862, guid: f8979654187ed3c4f8a0a4165cee37b7,
        type: 3}
      propertyPath: m_LocalRotation.y
      value: -0
      objectReference: {fileID: 0}
    - target: {fileID: -4216859302048453862, guid: f8979654187ed3c4f8a0a4165cee37b7,
        type: 3}
      propertyPath: m_LocalRotation.z
      value: -0
      objectReference: {fileID: 0}
    - target: {fileID: -4216859302048453862, guid: f8979654187ed3c4f8a0a4165cee37b7,
        type: 3}
      propertyPath: m_LocalRotation.w
      value: 1
      objectReference: {fileID: 0}
    - target: {fileID: -4216859302048453862, guid: f8979654187ed3c4f8a0a4165cee37b7,
        type: 3}
      propertyPath: m_RootOrder
      value: 0
      objectReference: {fileID: 0}
    - target: {fileID: -4216859302048453862, guid: f8979654187ed3c4f8a0a4165cee37b7,
        type: 3}
      propertyPath: m_LocalEulerAnglesHint.x
      value: 0
      objectReference: {fileID: 0}
    - target: {fileID: -4216859302048453862, guid: f8979654187ed3c4f8a0a4165cee37b7,
        type: 3}
      propertyPath: m_LocalEulerAnglesHint.y
      value: 0
      objectReference: {fileID: 0}
    - target: {fileID: -4216859302048453862, guid: f8979654187ed3c4f8a0a4165cee37b7,
        type: 3}
      propertyPath: m_LocalEulerAnglesHint.z
      value: 0
      objectReference: {fileID: 0}
    - target: {fileID: -4216859302048453862, guid: f8979654187ed3c4f8a0a4165cee37b7,
        type: 3}
      propertyPath: m_LocalScale.x
      value: 23.8975
      objectReference: {fileID: 0}
    - target: {fileID: -4216859302048453862, guid: f8979654187ed3c4f8a0a4165cee37b7,
        type: 3}
      propertyPath: m_LocalScale.y
      value: 23.8975
      objectReference: {fileID: 0}
    - target: {fileID: -4216859302048453862, guid: f8979654187ed3c4f8a0a4165cee37b7,
        type: 3}
      propertyPath: m_LocalScale.z
      value: 23.8975
      objectReference: {fileID: 0}
    - target: {fileID: -1504981713932161579, guid: f8979654187ed3c4f8a0a4165cee37b7,
        type: 3}
      propertyPath: m_Materials.Array.data[0]
      value: 
      objectReference: {fileID: 2100000, guid: 404b951f649397e4881bdf7bdcd79a71, type: 2}
    - target: {fileID: -1504981713932161579, guid: f8979654187ed3c4f8a0a4165cee37b7,
        type: 3}
      propertyPath: m_Materials.Array.data[1]
      value: 
      objectReference: {fileID: 2100000, guid: 36a15186ceb02ab4ab2616e13b82b885, type: 2}
    - target: {fileID: -927199367670048503, guid: f8979654187ed3c4f8a0a4165cee37b7,
        type: 3}
      propertyPath: m_Name
      value: CuboMallaRed (1)
      objectReference: {fileID: 0}
    - target: {fileID: -927199367670048503, guid: f8979654187ed3c4f8a0a4165cee37b7,
        type: 3}
      propertyPath: m_Layer
      value: 8
      objectReference: {fileID: 0}
    m_RemovedComponents: []
  m_SourcePrefab: {fileID: 100100000, guid: f8979654187ed3c4f8a0a4165cee37b7, type: 3}
--- !u!1 &2522619032921235063 stripped
GameObject:
  m_CorrespondingSourceObject: {fileID: -927199367670048503, guid: f8979654187ed3c4f8a0a4165cee37b7,
    type: 3}
  m_PrefabInstance: {fileID: 5774680919179233150}
  m_PrefabAsset: {fileID: 0}
--- !u!4 &1538398727029271652 stripped
Transform:
  m_CorrespondingSourceObject: {fileID: -4216859302048453862, guid: f8979654187ed3c4f8a0a4165cee37b7,
    type: 3}
  m_PrefabInstance: {fileID: 5774680919179233150}
  m_PrefabAsset: {fileID: 0}
